--- best-performance year
2013 28106.0

--- all years
2013 28106.0
2012 27567.0
2014 27441.0
2011 27006.0
2015 25413.0
2016 24622.0
2010 24075.0
2021 23223.0
2022 23183.0
2017 22820.0
2009 22745.0
2019 21364.0
2018 21258.0
2020 19208.0


